Take-Home Exercise 01 – ISSS608 Coursework
…
The aim of this task is to examine if there are any trends in categorical data in the occurance of heart attack in Japnaese population.

The code below is extract our the categorical data and summarise into the occurance of heart attack

categorical_columns <- HA %>% select(where(~is.character(.x) || is.factor(.x)))

count_occurrences <- categorical_columns %>%
  pivot_longer(-Heart_Attack_Occurrence, names_to = "Category", values_to = "Value") %>%
  group_by(Category, Value, Heart_Attack_Occurrence) %>%
  summarise(Occurrences = n(), .groups = 'drop')

print(count_occurrences)

# A tibble: 44 × 4
   Category            Value    Heart_Attack_Occurrence Occurrences
   <chr>               <chr>    <chr>                         <int>
 1 Alcohol_Consumption High     No                             5243
 2 Alcohol_Consumption High     Yes                             585
 3 Alcohol_Consumption Low      No                             8177
 4 Alcohol_Consumption Low      Yes                             921
 5 Alcohol_Consumption Moderate No                            10913
 6 Alcohol_Consumption Moderate Yes                            1146
 7 Alcohol_Consumption None     No                             2703
 8 Alcohol_Consumption None     Yes                             312
 9 Diabetes_History    No       No                            21569
10 Diabetes_History    No       Yes                            2334
# ℹ 34 more rows
…
