Take Home Exercise 02 – ISSS608 Coursework
…
Te following code check is to select the numeric figures and suming them accordingly if they are they consist of the same dimension and assuming the arrangment of the values are the same.

if (all(dim(export_r) == dim(re_export_r))) {
  summed_df <- export_r %>%
    mutate(across(where(is.numeric), ~ . + re_export_r[[cur_column()]]))
  non_numeric_cols <- export_r %>%
    select(where(~!is.numeric(.)))
  
 combined_export <- bind_cols(non_numeric_cols, summed_df %>% select(where(is.numeric)))
  print(combined_export)
} else {
  cat("The data frames do not have the same dimensions and cannot be summed element-wise.\n")
}

# A tibble: 160 × 266
   `Data Series`       `2025 Jan` `2024 Dec` `2024 Nov` `2024 Oct` `2024 Sep`
   <chr>                    <dbl>      <dbl>      <dbl>      <dbl>      <dbl>
 1 Total All Markets      59408.     60143.     58330.     56110.     54444. 
 2 America                 7373.      7501.      6657.      6324.      6491. 
 3 Antigua And Barbuda       10.7        7.2        8.3        7.9        8.2
 4 Argentina                 31         28.3       23.3       30.2       30.1
 5 Bahamas                   61.2       49.4       64.2       40.4       67.4
 6 Bermuda                    2.8        7.7        0.5        5.5        0.7
 7 Brazil                   244.       207.       187.       217.       233. 
 8 Canada                   113.       103.       155.        97.2      141. 
 9 Chile                     14         13.7       10.7       13.2       29.8
10 Colombia                  10.7       16.4       12.5       14.1       13.6
# ℹ 150 more rows
# ℹ 260 more variables: `2024 Aug` <dbl>, `2024 Jul` <dbl>, `2024 Jun` <dbl>,
#   `2024 May` <dbl>, `2024 Apr` <dbl>, `2024 Mar` <dbl>, `2024 Feb` <dbl>,
#   `2024 Jan` <dbl>, `2023 Dec` <dbl>, `2023 Nov` <dbl>, `2023 Oct` <dbl>,
#   `2023 Sep` <dbl>, `2023 Aug` <dbl>, `2023 Jul` <dbl>, `2023 Jun` <dbl>,
#   `2023 May` <dbl>, `2023 Apr` <dbl>, `2023 Mar` <dbl>, `2023 Feb` <dbl>,
#   `2023 Jan` <dbl>, `2022 Dec` <dbl>, `2022 Nov` <dbl>, `2022 Oct` <dbl>, …
…
# Extract the year and add it as a new column
yearly_export$Year <- year(yearly_export$`Month_Year`)

# Summarize the values by year and remove the month_year column. 
yearly_export <- yearly_export %>%
  group_by(Year) %>%
  summarise(across(-Month_Year, sum, na.rm = TRUE))

# Print the summarized data frame
print(yearly_export )

# A tibble: 21 × 161
    Year Total_exports America `Antigua And Barbuda` Argentina Bahamas Bermuda
   <dbl>         <dbl>   <dbl>                 <dbl>     <dbl>   <dbl>   <dbl>
 1  2004       336776   45812.                  168.      269.    273.    35.9
 2  2005       383683.  48380.                  190.      115.    416.    46.2
 3  2006       434056.  54821                   212.      123     471.    96.1
 4  2007       454087.  54740.                  292.      188.    718.   144. 
 5  2008       480855.  54029.                  576.      241.   1130.   340. 
 6  2009       392926.  43911.                  413.      113.    767.   200. 
 7  2010       480710.  49944                   593.      225.   1012.   201. 
 8  2011       523270.  53450.                  670       204.   1287.   306. 
 9  2012       519354.  51613                   575.      206.   1310.   368  
10  2013       525507   53231.                  436.      168.   1239.   439. 
# ℹ 11 more rows
# ℹ 154 more variables: Brazil <dbl>, Canada <dbl>, Chile <dbl>,
#   Colombia <dbl>, `Costa Rica` <dbl>, Cuba <dbl>, `Dominican Rep` <dbl>,
#   Ecuador <dbl>, `El Salvador` <dbl>, Guatemala <dbl>, Guyana <dbl>,
#   Honduras <dbl>, Jamaica <dbl>, Mexico <dbl>, `Netherlands Antilles` <dbl>,
#   Panama <dbl>, Paraguay <dbl>, Peru <dbl>, `Puerto Rico` <dbl>,
#   `St. Vincent And The Grenadines` <dbl>, `Trinidad And Tobago` <dbl>, …

# Combine the total imports and total exports into one data frame
combined_data <- yearly_import %>%
  inner_join(yearly_export, by = "Year")

# Print the combined data frame
print(combined_data)

# A tibble: 21 × 321
    Year Total_imports America.x `Antigua And Barbuda.x` Argentina.x Bahamas.x
   <dbl>         <dbl>     <dbl>                   <dbl>       <dbl>     <dbl>
 1  2004       294178.    38847                      0          32.3      45.1
 2  2005       334314.    43741.                    18.9        38.6      41.2
 3  2006       380842.    53460                      0.1        69.2      93  
 4  2007       398404     55411                      0.4        65.4     584. 
 5  2008       455460.    63848.                     0         105       764. 
 6  2009       358374.    52205.                     8.1        79.8     635. 
 7  2010       426326.    59736.                     5.7       106.      546. 
 8  2011       468288.    63805.                     0.4       102.     1070. 
 9  2012       482190.    63758.                     0          81.1     901. 
10  2013       485571.    66237.                     0.1       166.        0.5
# ℹ 11 more rows
# ℹ 315 more variables: Bermuda.x <dbl>, Brazil.x <dbl>, Canada.x <dbl>,
#   Chile.x <dbl>, Colombia.x <dbl>, `Costa Rica.x` <dbl>, Cuba.x <dbl>,
#   `Dominican Rep.x` <dbl>, Ecuador.x <dbl>, `El Salvador.x` <dbl>,
#   Guatemala.x <dbl>, Guyana.x <dbl>, Honduras.x <dbl>, Jamaica.x <dbl>,
#   Mexico.x <dbl>, `Netherlands Antilles.x` <dbl>, Panama.x <dbl>,
#   Paraguay.x <dbl>, Peru.x <dbl>, `Puerto Rico.x` <dbl>, …

Preparation for Total Merchandis trade dataframe

# Extract the 'Total_imports' column
total_imports_summary <- yearly_import %>% select(Year, Total_imports)

# combining total import and export column
combined_summary <- yearly_export %>% 
  select(Year, Total_exports) %>% 
  inner_join(total_imports_summary, by = "Year")

# Print the combined summary
print(combined_summary)

# A tibble: 21 × 3
    Year Total_exports Total_imports
   <dbl>         <dbl>         <dbl>
 1  2004       336776        294178.
 2  2005       383683.       334314.
 3  2006       434056.       380842.
 4  2007       454087.       398404 
 5  2008       480855.       455460.
 6  2009       392926.       358374.
 7  2010       480710.       426326.
 8  2011       523270.       468288.
 9  2012       519354.       482190.
10  2013       525507        485571.
# ℹ 11 more rows
…
#Calculate the YoY percentage change for 'Total_imports', 'Total_exports', and 'Total Trade'
combined_summary <- combined_summary %>%
  arrange(Year) %>%
  mutate(
    YoY_imports_change = (Total_imports / lag(Total_imports) - 1) * 100,
    YoY_exports_change = (Total_exports / lag(Total_exports) - 1) * 100,
    YoY_trade_change = (Total_Trade / lag(Total_Trade) - 1) * 100
  )

# Print the updated combined summary data frame
print(combined_summary)

# A tibble: 21 × 7
    Year Total_exports Total_imports Total_Trade YoY_imports_change
   <dbl>         <dbl>         <dbl>       <dbl>              <dbl>
 1  2004       336776        294178.     630954.             NA    
 2  2005       383683.       334314.     717997              13.6  
 3  2006       434056.       380842.     814899.             13.9  
 4  2007       454087.       398404      852491.              4.61 
 5  2008       480855.       455460.     936316.             14.3  
 6  2009       392926.       358374.     751301.            -21.3  
 7  2010       480710.       426326.     907036.             19.0  
 8  2011       523270.       468288.     991559.              9.84 
 9  2012       519354.       482190.    1001544.              2.97 
10  2013       525507        485571.    1011078.              0.701
# ℹ 11 more rows
# ℹ 2 more variables: YoY_exports_change <dbl>, YoY_trade_change <dbl>
…
