Hands-o Exe 08- Modified codes using the new tmap package – ISSS608 Coursework
…
Visualising Geospatial Point Data

sgpools <- read_csv("data/aspatial/SGPools_svy21.csv")

list(sgpools) 

[[1]]
# A tibble: 306 × 7
   NAME           ADDRESS POSTCODE XCOORD YCOORD `OUTLET TYPE` `Gp1Gp2 Winnings`
   <chr>          <chr>      <dbl>  <dbl>  <dbl> <chr>                     <dbl>
 1 Livewire (Mar… 2 Bayf…    18972 30842. 29599. Branch                        5
 2 Livewire (Res… 26 Sen…    98138 26704. 26526. Branch                       11
 3 SportsBuzz (K… Lotus …   738078 20118. 44888. Branch                        0
 4 SportsBuzz (P… 1 Sele…   188306 29777. 31382. Branch                       44
 5 Prime Serango… Blk 54…   552542 32239. 39519. Branch                        0
 6 Singapore Poo… 1A Woo…   731001 21012. 46987. Branch                        3
 7 Singapore Poo… Blk 64…   370064 33990. 34356. Branch                       17
 8 Singapore Poo… Blk 88…   370088 33847. 33976. Branch                       16
 9 Singapore Poo… Blk 30…   540308 33910. 41275. Branch                       21
10 Singapore Poo… Blk 20…   560202 29246. 38943. Branch                       25
# ℹ 296 more rows
…
