Hands-on Exercise 08 – ISSS608 Coursework
…
sgpools <- read_csv("data/aspatial/SGPools_svy21.csv")

sgpools_sf <- st_as_sf(sgpools, 
                       coords = c("XCOORD", "YCOORD"),
                       crs= 3414)

list(sgpools_sf)

[[1]]
Simple feature collection with 306 features and 5 fields
Geometry type: POINT
Dimension:     XY
Bounding box:  xmin: 7844.194 ymin: 26525.7 xmax: 45176.57 ymax: 47987.13
Projected CRS: SVY21 / Singapore TM
# A tibble: 306 × 6
   NAME                         ADDRESS POSTCODE `OUTLET TYPE` `Gp1Gp2 Winnings`
 * <chr>                        <chr>      <dbl> <chr>                     <dbl>
 1 Livewire (Marina Bay Sands)  2 Bayf…    18972 Branch                        5
 2 Livewire (Resorts World Sen… 26 Sen…    98138 Branch                       11
 3 SportsBuzz (Kranji)          Lotus …   738078 Branch                        0
 4 SportsBuzz (PoMo)            1 Sele…   188306 Branch                       44
 5 Prime Serangoon North        Blk 54…   552542 Branch                        0
 6 Singapore Pools Woodlands C… 1A Woo…   731001 Branch                        3
 7 Singapore Pools 64 Circuit … Blk 64…   370064 Branch                       17
 8 Singapore Pools 88 Circuit … Blk 88…   370088 Branch                       16
 9 Singapore Pools Anchorvale … Blk 30…   540308 Branch                       21
10 Singapore Pools Ang Mo Kio … Blk 20…   560202 Branch                       25
# ℹ 296 more rows
# ℹ 1 more variable: geometry <POINT [m]>
…
